2.8,5.6,0,0,1
1.2,5.8,0,1,0
1.3,5.7,0,1,0
0.4,1.9,1,0,0
3,4.9,0,0,1
1.3,6.6,0,1,0
1.3,5.7,0,1,0
3.3,6,0,0,1
0.2,1.5,1,0,0
1.2,5.8,0,1,0
1.5,6,0,1,0
1.4,5.2,0,1,0
3.3,5.7,0,0,1
1.3,6.1,0,1,0
0.2,1.5,1,0,0
3,5.1,0,0,1
1.5,6.5,0,1,0
0.2,1.5,1,0,0
0.2,1.5,1,0,0
3.8,6.4,0,0,1
0.2,1.4,1,0,0
3,5.8,0,0,1
3.2,5.7,0,0,1
1,5.5,0,1,0
3.2,5.1,0,0,1
3,6.1,0,0,1
0.1,1.4,1,0,0
3.6,6.1,0,0,1
1.5,5.6,0,1,0
1.7,6.7,0,1,0
0.4,1.5,1,0,0
0.2,1.3,1,0,0
2.8,4.9,0,0,1
1.4,6.1,0,1,0
0.6,1.6,1,0,0
3,5.9,0,0,1
3,5.2,0,0,1
0.1,1.5,1,0,0
0.2,1,1,0,0
2.8,5.1,0,0,1
3.8,6.7,0,0,1
3.4,5.4,0,0,1
0.2,1.4,1,0,0
0.1,1.5,1,0,0
3,5.2,0,0,1
0.2,1.4,1,0,0
2.5,4.5,0,0,1
2.8,4.8,0,0,1
1.4,6.7,0,1,0
2.7,5.1,0,0,1
0.2,1.3,1,0,0
1,6,0,1,0
1,4.9,0,1,0
0.2,1.4,1,0,0
3,5.5,0,0,1
2.9,5.6,0,0,1
1.3,5.5,0,1,0
1,5,0,1,0
3.4,5.6,0,0,1
3.1,5.5,0,0,1
0.3,1.4,1,0,0
0.2,1.2,1,0,0
3,4.8,0,0,1
0.5,1.7,1,0,0
1.3,6.2,0,1,0
1.6,6.3,0,1,0
0.3,1.4,1,0,0
1.8,5.9,0,1,0
1.3,5.7,0,1,0
0.2,1.5,1,0,0
1.4,6.1,0,1,0
1.4,6.8,0,1,0
0.2,1.7,1,0,0
0.2,1.4,1,0,0
3,5.8,0,0,1
1.3,6.4,0,1,0
0.3,1.7,1,0,0
0.2,1.4,1,0,0
1.5,6.9,0,1,0
0.3,1.5,1,0,0
1.2,6.1,0,1,0
0.2,1.4,1,0,0
2.8,6.1,0,0,1
0.2,1.6,1,0,0
0.4,1.5,1,0,0
1.6,6,0,1,0
0.2,1.6,1,0,0
1.4,7,0,1,0
0.2,1.2,1,0,0
1.6,6,0,1,0
3.1,5.1,0,0,1
1,5.7,0,1,0
1.5,6.7,0,1,0
1.5,6.2,0,1,0
0.2,1.6,1,0,0
2.6,6.9,0,0,1
1.5,6.4,0,1,0
0.4,1.7,1,0,0
0.2,1.6,1,0,0
1.3,5.5,0,1,0
0.3,1.4,1,0,0
1.1,5.6,0,1,0
0.2,1.4,1,0,0
0.3,1.3,1,0,0
3.3,5.7,0,0,1
1.5,5.4,0,1,0
1.2,5.5,0,1,0
0.2,1.3,1,0,0
2.8,5.1,0,0,1
3.1,5.4,0,0,1
2.9,6.3,0,0,1
2.7,4.9,0,0,1
1,5.8,0,1,0
1.1,5.5,0,1,0
0.2,1.3,1,0,0
3.1,5.6,0,0,1
2.7,5.1,0,0,1
1.3,5.6,0,1,0
1.2,5.7,0,1,0
3,5.5,0,0,1
0.1,1.5,1,0,0
0.4,1.5,1,0,0
2.2,5,0,0,1
1.5,6.3,0,1,0
1.4,6.6,0,1,0
0.1,1.5,1,0,0
0.4,1.3,1,0,0
0.4,1.6,1,0,0
1.5,5.9,0,1,0
1.3,5.6,0,1,0
3.2,5.9,0,0,1
0.3,1.3,1,0,0
3,6.6,0,0,1
2.8,6.7,0,0,1
3.2,5.3,0,0,1
0.2,1.5,1,0,0
2.7,5.3,0,0,1
0.2,1.9,1,0,0
1,5,0,1,0
1.3,5.6,0,1,0
2.5,5,0,0,1
2.6,5.6,0,0,1
1.1,5.1,0,1,0
0.1,1.1,1,0,0
3.2,6,0,0,1
2.5,5.8,0,0,1
2.5,5,0,0,1
0.2,1.6,1,0,0
1.3,6.3,0,1,0
2.8,5.6,0,0,1
