75,174,-1
69,200,-1
79,186,-1
101,90,1
55,168,-1
83,88,1
80,120,1
80,97,1
43,150,-1
48,198,-1
88,124,1
102,136,1
108,104,1
86,83,1
44,156,-1
70,171,-1
65,174,-1
101,132,1
96,139,1
51,191,-1
91,130,1
63,193,-1
81,146,1
94,92,1
44,153,-1
61,168,-1
70,181,-1
54,184,-1
110,112,1
73,158,-1
85,125,1
68,155,-1
79,179,-1
76,191,-1
95,115,1
95,131,1
72,153,-1
79,191,-1
84,89,1
50,155,-1
104,128,1
82,131,1
81,155,-1
79,169,-1
94,116,1
87,82,1
82,87,1
89,130,1
53,182,-1
110,119,1
